COMPSCIX 415.2 Homework 5/Midterm
…
Answers to question 2:

diamonds_more <- select(diamonds, carat, cut, color, clarity, depth, table, price, x, y, z)

mutate(diamonds_more,
       price_per_carat = price / carat)

## # A tibble: 53,940 x 11
##    carat cut   color clarity depth table price     x     y     z
##    <dbl> <ord> <ord> <ord>   <dbl> <dbl> <int> <dbl> <dbl> <dbl>
##  1 0.23  Ideal E     SI2      61.5    55   326  3.95  3.98  2.43
##  2 0.21  Prem E     SI1      59.8    61   326  3.89  3.84  2.31
##  3 0.23  Good  E     VS1      56.9    65   327  4.05  4.07  2.31
##  4 0.290 Prem I     VS2      62.4    58   334  4.2   4.23  2.63
##  5 0.31  Good  J     SI2      63.3    58   335  4.34  4.35  2.75
##  6 0.24  Very J     VVS2     62.8    57   336  3.94  3.96  2.48
##  7 0.24  Very I     VVS1     62.3    57   336  3.95  3.98  2.47
##  8 0.26  Very H     SI1      61.9    55   337  4.07  4.11  2.53
##  9 0.22  Fair  E     VS2      65.1    61   337  3.87  3.78  2.49
## 10 0.23  Very H     VS1      59.4    61   338  4     4.05  2.39
## #  with 53,930 more rows, and 1 more variable: price_per_carat <dbl>
…
## # A tibble: 1 x 1
##   `n_distinct(city)`
##                <int>
## 1                 46

Answers to question 3:

The code below shows Houston is the city with the highest sale in July 2015.

txhousing %>%
  select(city, year, month, sales) %>%
  arrange(desc(sales))

## # A tibble: 8,602 x 4
##    city     year month sales
##    <chr>   <int> <int> <dbl>
##  1 Houston  2015     7  8945
##  2 Houston  2006     6  8628
##  3 Houston  2013     7  8468
##  4 Houston  2015     6  8449
##  5 Houston  2013     5  8439
##  6 Houston  2014     6  8391
##  7 Houston  2014     7  8391
##  8 Houston  2014     8  8167
##  9 Houston  2013     8  8155
## 10 Houston  2006     5  8040
## #  with 8,592 more rows
…
